{
    "name": "backend",
    "models": [{
        "name": "User",
        "properties": [{
            "dslType": "long",
            "name": "id",
            "wrappers": []
        }, {
            "dslType": "text",
            "name": "firstName",
            "wrappers": [],
            "maxSize": "255"
        }, {
            "dslType": "text",
            "name": "lastName",
            "wrappers": [],
            "maxSize": "255"
        }, {
            "dslType": "boolean",
            "name": "isDeleted",
            "wrappers": []
        }, {
            "dslType": "datetime",
            "name": "timetamp",
            "wrappers": []
        }, {
            "dslType": "long",
            "name": "firmId",
            "wrappers": ["OPTIONAL"]
        }, {
            "dslType": "enum",
            "name": "role",
            "wrappers": []
        }, {
            "dslType": "text",
            "name": "email",
            "wrappers": [],
            "minSize": "6",
            "maxSize": "128"
        }, {
            "dslType": "text",
            "name": "passwordHash",
            "wrappers": [],
            "minSize": "6",
            "maxSize": "128"
        }, {
            "dslType": "text",
            "name": "emailVerificationCode",
            "wrappers": ["OPTIONAL"],
            "minSize": "64",
            "maxSize": "64"
        }, {
            "dslType": "datetime",
            "name": "emailVerificationCodeTimestamp",
            "wrappers": ["OPTIONAL"]
        }, {
            "dslType": "boolean",
            "name": "emailVerified",
            "wrappers": [],
            "default": "false"
        }, {
            "dslType": "text",
            "name": "resetPasswordCode",
            "wrappers": ["OPTIONAL"],
            "minSize": "64",
            "maxSize": "64"
        }, {
            "dslType": "datetime",
            "name": "resetPasswordCodeTimestamp",
            "wrappers": ["OPTIONAL"]
        }],
        "references": [{
            "name": "firm",
            "model": "Firm",
            "properties": [{
                "dslType": "long",
                "name": "firmId",
                "wrappers": ["OPTIONAL"]
            }],
            "sqlName": "FK_USER.FI_FIRM.I_CB7024"
        }],
        "primaryKeys": [{
            "dslType": "long",
            "name": "id",
            "wrappers": []
        }],
        "primaryKeySqlName": "PK_USER_I_CF6928",
        "uniques": [{
            "properties": [{
                "dslType": "text",
                "name": "email",
                "wrappers": [],
                "minSize": "6",
                "maxSize": "128"
            }],
            "sqlName": "UNQ_USER_E_7E1D17"
        }, {
            "properties": [{
                "dslType": "text",
                "name": "emailVerificationCode",
                "wrappers": ["OPTIONAL"],
                "minSize": "64",
                "maxSize": "64"
            }],
            "sqlName": "UNQ_USER_EVC_4E3FFA"
        }, {
            "properties": [{
                "dslType": "text",
                "name": "resetPasswordCode",
                "wrappers": ["OPTIONAL"],
                "minSize": "64",
                "maxSize": "64"
            }],
            "sqlName": "UNQ_USER_RPC_74E561"
        }],
        "indices": []
    }, {
        "name": "Firm",
        "properties": [{
            "dslType": "long",
            "name": "id",
            "wrappers": []
        }, {
            "dslType": "text",
            "name": "name",
            "wrappers": [],
            "maxSize": "255"
        }, {
            "dslType": "text",
            "name": "address",
            "wrappers": [],
            "maxSize": "255"
        }, {
            "dslType": "text",
            "name": "city",
            "wrappers": [],
            "maxSize": "255"
        }, {
            "dslType": "text",
            "name": "country",
            "wrappers": [],
            "maxSize": "255"
        }, {
            "dslType": "text",
            "name": "email",
            "wrappers": ["OPTIONAL"],
            "maxSize": "255"
        }, {
            "dslType": "text",
            "name": "phone",
            "wrappers": ["OPTIONAL"],
            "maxSize": "255"
        }, {
            "dslType": "text",
            "name": "web",
            "wrappers": ["OPTIONAL"],
            "maxSize": "255"
        }, {
            "dslType": "text",
            "name": "pib",
            "wrappers": [],
            "maxSize": "8"
        }, {
            "dslType": "boolean",
            "name": "isDeleted",
            "wrappers": []
        }],
        "references": [],
        "primaryKeys": [{
            "dslType": "long",
            "name": "id",
            "wrappers": []
        }],
        "primaryKeySqlName": "PK_FIRM_I_B895CF",
        "uniques": [],
        "indices": []
    }, {
        "name": "BusinessYear",
        "properties": [{
            "dslType": "long",
            "name": "id",
            "wrappers": []
        }, {
            "dslType": "text",
            "name": "year",
            "wrappers": [],
            "maxSize": "4"
        }, {
            "dslType": "boolean",
            "name": "isFinished",
            "wrappers": []
        }, {
            "dslType": "long",
            "name": "firmId",
            "wrappers": []
        }, {
            "dslType": "boolean",
            "name": "isDeleted",
            "wrappers": []
        }],
        "references": [{
            "name": "firm",
            "model": "Firm",
            "properties": [{
                "dslType": "long",
                "name": "firmId",
                "wrappers": []
            }],
            "sqlName": "FK_BUSI.FI_FIRM.I_B819AA"
        }],
        "primaryKeys": [{
            "dslType": "long",
            "name": "id",
            "wrappers": []
        }],
        "primaryKeySqlName": "PK_BUSI_I_2DF11B",
        "uniques": [],
        "indices": []
    }, {
        "name": "BusinessPartner",
        "properties": [{
            "dslType": "long",
            "name": "id",
            "wrappers": []
        }, {
            "dslType": "text",
            "name": "name",
            "wrappers": [],
            "maxSize": "255"
        }, {
            "dslType": "text",
            "name": "address",
            "wrappers": [],
            "maxSize": "255"
        }, {
            "dslType": "text",
            "name": "city",
            "wrappers": [],
            "maxSize": "255"
        }, {
            "dslType": "text",
            "name": "country",
            "wrappers": [],
            "maxSize": "255"
        }, {
            "dslType": "text",
            "name": "email",
            "wrappers": ["OPTIONAL"],
            "maxSize": "255"
        }, {
            "dslType": "text",
            "name": "phone",
            "wrappers": ["OPTIONAL"],
            "maxSize": "255"
        }, {
            "dslType": "text",
            "name": "web",
            "wrappers": ["OPTIONAL"],
            "maxSize": "255"
        }, {
            "dslType": "enum",
            "name": "status",
            "wrappers": []
        }, {
            "dslType": "long",
            "name": "firmId",
            "wrappers": []
        }, {
            "dslType": "boolean",
            "name": "isDeleted",
            "wrappers": []
        }],
        "references": [{
            "name": "firm",
            "model": "Firm",
            "properties": [{
                "dslType": "long",
                "name": "firmId",
                "wrappers": []
            }],
            "sqlName": "FK_BUSI.FI_FIRM.I_AD336D"
        }],
        "primaryKeys": [{
            "dslType": "long",
            "name": "id",
            "wrappers": []
        }],
        "primaryKeySqlName": "PK_BUSI_I_22AC41",
        "uniques": [],
        "indices": []
    }, {
        "name": "GroupFirm",
        "properties": [{
            "dslType": "long",
            "name": "id",
            "wrappers": []
        }, {
            "dslType": "text",
            "name": "name",
            "wrappers": [],
            "maxSize": "255"
        }, {
            "dslType": "long",
            "name": "firmId",
            "wrappers": []
        }, {
            "dslType": "boolean",
            "name": "isDeleted",
            "wrappers": []
        }],
        "references": [{
            "name": "firm",
            "model": "Firm",
            "properties": [{
                "dslType": "long",
                "name": "firmId",
                "wrappers": []
            }],
            "sqlName": "FK_GROU.FI_FIRM.I_BE80D8"
        }],
        "primaryKeys": [{
            "dslType": "long",
            "name": "id",
            "wrappers": []
        }],
        "primaryKeySqlName": "PK_GROU_I_DEE642",
        "uniques": [],
        "indices": []
    }, {
        "name": "SubGroup",
        "properties": [{
            "dslType": "long",
            "name": "id",
            "wrappers": []
        }, {
            "dslType": "text",
            "name": "name",
            "wrappers": [],
            "maxSize": "255"
        }, {
            "dslType": "long",
            "name": "groupId",
            "wrappers": []
        }, {
            "dslType": "boolean",
            "name": "isDeleted",
            "wrappers": []
        }],
        "references": [{
            "name": "group",
            "model": "GroupFirm",
            "properties": [{
                "dslType": "long",
                "name": "groupId",
                "wrappers": []
            }],
            "sqlName": "FK_SUBG.GI_GROU.I_386FC5"
        }],
        "primaryKeys": [{
            "dslType": "long",
            "name": "id",
            "wrappers": []
        }],
        "primaryKeySqlName": "PK_SUBG_I_A75639",
        "uniques": [],
        "indices": []
    }, {
        "name": "Article",
        "properties": [{
            "dslType": "long",
            "name": "id",
            "wrappers": []
        }, {
            "dslType": "text",
            "name": "name",
            "wrappers": [],
            "maxSize": "255"
        }, {
            "dslType": "text",
            "name": "code",
            "wrappers": [],
            "maxSize": "255"
        }, {
            "dslType": "enum",
            "name": "status",
            "wrappers": []
        }, {
            "dslType": "long",
            "name": "subGroupId",
            "wrappers": []
        }, {
            "dslType": "long",
            "name": "unitOfMeasureId",
            "wrappers": []
        }, {
            "dslType": "boolean",
            "name": "isDeleted",
            "wrappers": []
        }],
        "references": [{
            "name": "subGroup",
            "model": "SubGroup",
            "properties": [{
                "dslType": "long",
                "name": "subGroupId",
                "wrappers": []
            }],
            "sqlName": "FK_ARTI.SGI_SUBG.I_39AB93"
        }, {
            "name": "unitOfMeasure",
            "model": "UnitOfMeasure",
            "properties": [{
                "dslType": "long",
                "name": "unitOfMeasureId",
                "wrappers": []
            }],
            "sqlName": "FK_ARTI.UOMI_UNIT.I_8D84E4"
        }],
        "primaryKeys": [{
            "dslType": "long",
            "name": "id",
            "wrappers": []
        }],
        "primaryKeySqlName": "PK_ARTI_I_EE00DF",
        "uniques": [],
        "indices": []
    }, {
        "name": "UnitOfMeasure",
        "properties": [{
            "dslType": "long",
            "name": "id",
            "wrappers": []
        }, {
            "dslType": "text",
            "name": "name",
            "wrappers": [],
            "maxSize": "255"
        }, {
            "dslType": "text",
            "name": "shortName",
            "wrappers": ["OPTIONAL"],
            "maxSize": "255"
        }, {
            "dslType": "boolean",
            "name": "isDeleted",
            "wrappers": []
        }],
        "references": [],
        "primaryKeys": [{
            "dslType": "long",
            "name": "id",
            "wrappers": []
        }],
        "primaryKeySqlName": "PK_UNIT_I_B2FD9A",
        "uniques": [],
        "indices": []
    }, {
        "name": "Warehouse",
        "properties": [{
            "dslType": "long",
            "name": "id",
            "wrappers": []
        }, {
            "dslType": "long",
            "name": "firmId",
            "wrappers": []
        }, {
            "dslType": "text",
            "name": "code",
            "wrappers": [],
            "maxSize": "255"
        }, {
            "dslType": "text",
            "name": "name",
            "wrappers": [],
            "maxSize": "255"
        }, {
            "dslType": "text",
            "name": "address",
            "wrappers": [],
            "maxSize": "255"
        }, {
            "dslType": "text",
            "name": "city",
            "wrappers": [],
            "maxSize": "255"
        }, {
            "dslType": "text",
            "name": "country",
            "wrappers": [],
            "maxSize": "255"
        }, {
            "dslType": "boolean",
            "name": "isDeleted",
            "wrappers": []
        }],
        "references": [{
            "name": "firm",
            "model": "Firm",
            "properties": [{
                "dslType": "long",
                "name": "firmId",
                "wrappers": []
            }],
            "sqlName": "FK_WARE.FI_FIRM.I_05A705"
        }],
        "primaryKeys": [{
            "dslType": "long",
            "name": "id",
            "wrappers": []
        }],
        "primaryKeySqlName": "PK_WARE_I_5438E3",
        "uniques": [],
        "indices": []
    }, {
        "name": "WarehouseCard",
        "properties": [{
            "dslType": "long",
            "name": "id",
            "wrappers": []
        }, {
            "dslType": "decimal",
            "name": "input",
            "wrappers": [],
            "precision": 10,
            "scale": 4
        }, {
            "dslType": "decimal",
            "name": "output",
            "wrappers": [],
            "precision": 10,
            "scale": 4
        }, {
            "dslType": "decimal",
            "name": "balance",
            "wrappers": [],
            "precision": 10,
            "scale": 4
        }, {
            "dslType": "decimal",
            "name": "inValue",
            "wrappers": [],
            "precision": 10,
            "scale": 4
        }, {
            "dslType": "decimal",
            "name": "outValue",
            "wrappers": [],
            "precision": 10,
            "scale": 4
        }, {
            "dslType": "decimal",
            "name": "totalValue",
            "wrappers": [],
            "precision": 10,
            "scale": 4
        }, {
            "dslType": "long",
            "name": "warehouseId",
            "wrappers": []
        }, {
            "dslType": "long",
            "name": "businessYearId",
            "wrappers": []
        }, {
            "dslType": "long",
            "name": "articleId",
            "wrappers": []
        }, {
            "dslType": "boolean",
            "name": "isDeleted",
            "wrappers": []
        }],
        "references": [{
            "name": "warehouse",
            "model": "Warehouse",
            "properties": [{
                "dslType": "long",
                "name": "warehouseId",
                "wrappers": []
            }],
            "sqlName": "FK_WARE.WI_WARE.I_FB612F"
        }, {
            "name": "businessYear",
            "model": "BusinessYear",
            "properties": [{
                "dslType": "long",
                "name": "businessYearId",
                "wrappers": []
            }],
            "sqlName": "FK_WARE.BYI_BUSI.I_6ED696"
        }, {
            "name": "article",
            "model": "Article",
            "properties": [{
                "dslType": "long",
                "name": "articleId",
                "wrappers": []
            }],
            "sqlName": "FK_WARE.AI_ARTI.I_8A6A79"
        }],
        "primaryKeys": [{
            "dslType": "long",
            "name": "id",
            "wrappers": []
        }],
        "primaryKeySqlName": "PK_WARE_I_A0D60A",
        "uniques": [],
        "indices": []
    }, {
        "name": "Document",
        "properties": [{
            "dslType": "long",
            "name": "id",
            "wrappers": []
        }, {
            "dslType": "enum",
            "name": "type",
            "wrappers": []
        }, {
            "dslType": "datetime",
            "name": "dateOfDelivery",
            "wrappers": ["OPTIONAL"]
        }, {
            "dslType": "datetime",
            "name": "dateOfValue",
            "wrappers": ["OPTIONAL"]
        }, {
            "dslType": "datetime",
            "name": "dateOfStatement",
            "wrappers": ["OPTIONAL"]
        }, {
            "dslType": "decimal",
            "name": "sumWaresServices",
            "wrappers": [],
            "precision": 10,
            "scale": 4
        }, {
            "dslType": "decimal",
            "name": "sumRebate",
            "wrappers": ["OPTIONAL"],
            "precision": 10,
            "scale": 4
        }, {
            "dslType": "decimal",
            "name": "sumTax",
            "wrappers": ["OPTIONAL"],
            "precision": 10,
            "scale": 4
        }, {
            "dslType": "decimal",
            "name": "amount",
            "wrappers": ["OPTIONAL"],
            "precision": 10,
            "scale": 4
        }, {
            "dslType": "text",
            "name": "paymentOfAccount",
            "wrappers": ["OPTIONAL"],
            "maxSize": "255"
        }, {
            "dslType": "text",
            "name": "referenceNumber",
            "wrappers": ["OPTIONAL"],
            "maxSize": "255"
        }, {
            "dslType": "long",
            "name": "businessYearId",
            "wrappers": []
        }, {
            "dslType": "long",
            "name": "businessPartnerId",
            "wrappers": []
        }, {
            "dslType": "long",
            "name": "warehouseId",
            "wrappers": []
        }, {
            "dslType": "boolean",
            "name": "isReversed",
            "wrappers": []
        }, {
            "dslType": "boolean",
            "name": "isBooked",
            "wrappers": []
        }, {
            "dslType": "boolean",
            "name": "isDeleted",
            "wrappers": []
        }],
        "references": [{
            "name": "businessYear",
            "model": "BusinessYear",
            "properties": [{
                "dslType": "long",
                "name": "businessYearId",
                "wrappers": []
            }],
            "sqlName": "FK_DOCU.BYI_BUSI.I_55D661"
        }, {
            "name": "businessPartner",
            "model": "BusinessPartner",
            "properties": [{
                "dslType": "long",
                "name": "businessPartnerId",
                "wrappers": []
            }],
            "sqlName": "FK_DOCU.BPI_BUSI.I_04D708"
        }, {
            "name": "warehouse",
            "model": "Warehouse",
            "properties": [{
                "dslType": "long",
                "name": "warehouseId",
                "wrappers": []
            }],
            "sqlName": "FK_DOCU.WI_WARE.I_8DBD85"
        }],
        "primaryKeys": [{
            "dslType": "long",
            "name": "id",
            "wrappers": []
        }],
        "primaryKeySqlName": "PK_DOCU_I_0CC821",
        "uniques": [],
        "indices": []
    }, {
        "name": "DocumentItem",
        "properties": [{
            "dslType": "long",
            "name": "id",
            "wrappers": []
        }, {
            "dslType": "long",
            "name": "documentId",
            "wrappers": []
        }, {
            "dslType": "decimal",
            "name": "quantity",
            "wrappers": [],
            "precision": 10,
            "scale": 4
        }, {
            "dslType": "enum",
            "name": "type",
            "wrappers": []
        }, {
            "dslType": "decimal",
            "name": "price",
            "wrappers": [],
            "precision": 10,
            "scale": 4
        }, {
            "dslType": "long",
            "name": "articleId",
            "wrappers": []
        }, {
            "dslType": "boolean",
            "name": "isDeleted",
            "wrappers": []
        }],
        "references": [{
            "name": "document",
            "model": "Document",
            "properties": [{
                "dslType": "long",
                "name": "documentId",
                "wrappers": []
            }],
            "sqlName": "FK_DOCU.DI_DOCU.I_0048A8"
        }, {
            "name": "article",
            "model": "Article",
            "properties": [{
                "dslType": "long",
                "name": "articleId",
                "wrappers": []
            }],
            "sqlName": "FK_DOCU.AI_ARTI.I_38A8EC"
        }],
        "primaryKeys": [{
            "dslType": "long",
            "name": "id",
            "wrappers": []
        }],
        "primaryKeySqlName": "PK_DOCU_I_C46DCB",
        "uniques": [],
        "indices": []
    }, {
        "name": "Analytics",
        "properties": [{
            "dslType": "long",
            "name": "id",
            "wrappers": []
        }, {
            "dslType": "date",
            "name": "date",
            "wrappers": []
        }, {
            "dslType": "enum",
            "name": "type",
            "wrappers": []
        }, {
            "dslType": "text",
            "name": "direction",
            "wrappers": [],
            "maxSize": "255"
        }, {
            "dslType": "decimal",
            "name": "input",
            "wrappers": ["OPTIONAL"],
            "precision": 10,
            "scale": 4
        }, {
            "dslType": "decimal",
            "name": "output",
            "wrappers": ["OPTIONAL"],
            "precision": 10,
            "scale": 4
        }, {
            "dslType": "decimal",
            "name": "balance",
            "wrappers": [],
            "precision": 10,
            "scale": 4
        }, {
            "dslType": "decimal",
            "name": "price",
            "wrappers": [],
            "precision": 10,
            "scale": 4
        }, {
            "dslType": "decimal",
            "name": "inValue",
            "wrappers": ["OPTIONAL"],
            "precision": 10,
            "scale": 4
        }, {
            "dslType": "decimal",
            "name": "outValue",
            "wrappers": ["OPTIONAL"],
            "precision": 10,
            "scale": 4
        }, {
            "dslType": "decimal",
            "name": "totalValue",
            "wrappers": [],
            "precision": 10,
            "scale": 4
        }, {
            "dslType": "long",
            "name": "documentItemId",
            "wrappers": ["OPTIONAL"]
        }, {
            "dslType": "long",
            "name": "warehouseCardId",
            "wrappers": []
        }, {
            "dslType": "boolean",
            "name": "isDeleted",
            "wrappers": []
        }],
        "references": [{
            "name": "documentItem",
            "model": "DocumentItem",
            "properties": [{
                "dslType": "long",
                "name": "documentItemId",
                "wrappers": ["OPTIONAL"]
            }],
            "sqlName": "FK_ANAL.DII_DOCU.I_593D90"
        }, {
            "name": "warehouseCard",
            "model": "WarehouseCard",
            "properties": [{
                "dslType": "long",
                "name": "warehouseCardId",
                "wrappers": []
            }],
            "sqlName": "FK_ANAL.WCI_WARE.I_92CEA0"
        }],
        "primaryKeys": [{
            "dslType": "long",
            "name": "id",
            "wrappers": []
        }],
        "primaryKeySqlName": "PK_ANAL_I_2691C1",
        "uniques": [],
        "indices": []
    }]
}